QC and downstream analysis for differential expression RNA-seq • DEGreport
…
By default it would output the shrunken table always, as defined by degDefault, that contains the default table to get.

To get the original results table, use the parameter as this:

deg(degs[[1]], "raw", "tibble")

## # A tibble: 1,000 x 7
##    gene            baseMean log2FoldChange  lfcSE  stat    pvalue      padj
##    <chr>              <dbl>          <dbl>  <dbl> <dbl>     <dbl>     <dbl>
##  1 ENSG00000067048   1025.          10.2   0.423  24.0  3.18e-127 3.18e-124
##  2 ENSG00000012817    412.           9.24  0.424  21.8  2.10e-105 1.05e-102
##  3 ENSG00000067646    170.          10.2   0.658  15.5  4.46e- 54 1.49e- 51
##  4 ENSG00000005889    671.          -0.692 0.131  -5.26 1.41e-  7 3.53e-  5
##  5 ENSG00000006757     92.7         -0.767 0.161  -4.76 1.96e-  6 3.93e-  4
##  6 ENSG00000073282    220.          -1.87  0.421  -4.44 8.89e-  6 1.48e-  3
##  7 ENSG00000005302   2027.          -0.742 0.176  -4.21 2.59e-  5 3.69e-  3
##  8 ENSG00000005020   1234.           0.389 0.0952  4.08 4.44e-  5 5.56e-  3
##  9 ENSG00000003400    394.           0.680 0.177   3.85 1.17e-  4 1.31e-  2
## 10 ENSG00000069702    107.          -1.63  0.459  -3.56 3.71e-  4 3.71e-  2
## # … with 990 more rows
…
