DEGSet — DEGSet • DEGreport
…
#>                        stat               pvalue                 padj
#>                   <numeric>            <numeric>            <numeric>
#> gene202    7.82879005947595 4.92587384985754e-15 4.05892005228261e-12
#> gene710    6.93369964061162  4.0997464674756e-12 1.68909554459995e-09
#> gene365    6.79494555755484 1.08353438828276e-11  2.9761077864833e-09
#> gene364    6.56399761634188 5.23840391930272e-11 1.07911120737636e-08
#> gene92      5.4297680851086 5.64273306072517e-08 9.29922408407507e-06
#> ...                     ...                  ...                  ...
#> gene984    1.56606943948116    0.117332361646146                   NA
#> gene986  -0.743786405055134    0.457005706109876                   NA
#> gene989    1.31499465077388    0.188511700254376                   NA
#> gene995    1.09138089416803    0.275105315817471                   NA
#> gene1000 -0.806243807885651    0.420102283688199                   NA
deg(res[[1]], tidy = "tibble")
#> # A tibble: 1,000 x 7
#>    gene    baseMean log2FoldChange lfcSE  stat   pvalue     padj
#>  * <chr>      <dbl>          <dbl> <dbl> <dbl>    <dbl>    <dbl>
#>  1 gene202    596.            2.69 0.313  7.83 4.93e-15 4.06e-12
#>  2 gene710    117.            2.39 0.309  6.93 4.10e-12 1.69e- 9
#>  3 gene365     62.4           2.69 0.347  6.79 1.08e-11 2.98e- 9
#>  4 gene364    505.            2.14 0.304  6.56 5.24e-11 1.08e- 8
#>  5 gene92     221.            2.06 0.327  5.43 5.64e- 8 9.30e- 6
#>  6 gene664    110.            1.97 0.350  5.20 2.03e- 7 2.79e- 5
#>  7 gene577    135.           -1.66 0.295 -5.17 2.37e- 7 2.79e- 5
#>  8 gene564     83.3          -1.93 0.361 -5.12 3.08e- 7 3.10e- 5
#>  9 gene787     71.0           1.92 0.360  5.08 3.76e- 7 3.10e- 5
#> 10 gene836     49.2           2.25 0.377  5.08 3.71e- 7 3.10e- 5
#> # ... with 990 more rows
…
